{
  "swagger": "2.0",
  "info": {
    "description": "This is backend test task for HolidayExtras",
    "version": "1.0.0",
    "title": "Web Development API Task"
  },
  "host": "localhost:5000",
  "schemes": [
    "http"
  ],
  "paths": {
    "/user/create": {
      "post": {
        "tags": [
          "user"
        ],
        "summary": "Create a new user",
        "description": "",
        "operationId": "createUser",
        "consumes": [
          "application/json"
        ],
        "produces": [
          "application/json"
        ],
        "parameters": [
          {
            "in": "body",
            "name": "body",
            "required": true,
            "schema": {
              "type": "object",
              "properties": {
                "email": {
                  "type": "string",
                  "description": "Email Address",
                  "default": "mbumb@deqode.com"
                },
                "givenName": {
                  "type": "string",
                  "description": "Email Address",
                  "default": "Mohit"
                },
                "familyName": {
                  "type": "string",
                  "description": "Email Address",
                  "default": "Bumb"
                }
              }
            }
          }
        ],
        "responses": {
          "200": {
            "description": "Success"
          },
          "400": {
            "description": "Validation exception"
          },
          "500": {
            "description": "Error"
          }
        }
      }
    },
    "/user/update/{id}": {
      "put": {
        "tags": [
          "user"
        ],
        "summary": "Update an existing user",
        "description": "",
        "operationId": "updateUser",
        "consumes": [
          "application/json"
        ],
        "produces": [
          "application/json"
        ],
        "parameters": [
          {
            "in": "path",
            "name": "id",
            "required": true
          },
          {
            "in": "body",
            "name": "body",
            "required": true,
            "schema": {
              "type": "object",
              "properties": {
                "email": {
                  "type": "string",
                  "description": "Email Address",
                  "default": "mbumb@deqode.com"
                },
                "givenName": {
                  "type": "string",
                  "description": "First Name",
                  "default": "Mohit"
                },
                "familyName": {
                  "type": "string",
                  "description": "Last Name",
                  "default": "Bumb"
                }
              }
            }
          }
        ],
        "responses": {
          "200": {
            "description": "Success"
          },
          "400": {
            "description": "Validation exception"
          },
          "500": {
            "description": "Error"
          }
        }
      }
    },
    "/user/{id}": {
      "get": {
        "tags": [
          "user"
        ],
        "summary": "Get user details",
        "description": "",
        "operationId": "userDetails",
        "consumes": [
          "application/json"
        ],
        "produces": [
          "application/json"
        ],
        "parameters": [
          {
            "in": "path",
            "name": "id",
            "required": true
          }
        ],
        "responses": {
          "200": {
            "description": "Success"
          },
          "500": {
            "description": "Error"
          }
        }
      }
    },
    "/user/": {
      "get": {
        "tags": [
          "user"
        ],
        "summary": "Get users list",
        "description": "",
        "operationId": "userList",
        "consumes": [
          "application/json"
        ],
        "produces": [
          "application/json"
        ],
        "responses": {
          "200": {
            "description": "Success"
          },
          "500": {
            "description": "Error"
          }
        }
      }
    },
    "/user/delete/{id}": {
      "delete": {
        "tags": [
          "user"
        ],
        "summary": "Remove an existing user",
        "description": "",
        "operationId": "removeUser",
        "consumes": [
          "application/json"
        ],
        "produces": [
          "application/json"
        ],
        "parameters": [
          {
            "in": "path",
            "name": "id",
            "required": true
          }
        ],
        "responses": {
          "200": {
            "description": "Success"
          },
          "400": {
            "description": "Validation exception"
          },
          "500": {
            "description": "Error"
          }
        }
      }
    }
  }
}